Lab5/Lab5Code/lab5.vcd
$date
	Sun May 22 15:29:22 2022
$end
$version
	Icarus Verilog
$end
$timescale
	1ps
$end
$scope module testbench $end
$var reg 1 ! clk $end
$var reg 1 " rst_n $end
$var integer 32 # count [31:0] $end
$var integer 32 $ fp_w [31:0] $end
$scope module CPU $end
$var wire 1 % IFID_Flush $end
$var wire 32 & Imm_4 [31:0] $end
$var wire 1 ! clk_i $end
$var wire 1 " rst_i $end
$var wire 1 ' Zero $end
$var wire 32 ( SL1_o [31:0] $end
$var wire 1 ) RegWrite $end
$var wire 32 * RTdata_o [31:0] $end
$var wire 32 + RSdata_o [31:0] $end
$var wire 1 , PC_write $end
$var wire 32 - PC_o [31:0] $end
$var wire 32 . PC_i [31:0] $end
$var wire 32 / PC_Add_Immediate [31:0] $end
$var wire 32 0 PC_Add4 [31:0] $end
$var wire 2 1 MemtoReg [1:0] $end
$var wire 1 2 MemWrite $end
$var wire 1 3 MemRead $end
$var wire 8 4 MUX_control_o [7:0] $end
$var wire 1 5 MUXPCSrc $end
$var wire 32 6 MUXMemtoReg_o [31:0] $end
$var wire 1 7 MUXControl $end
$var wire 3 8 MEMWB_WB_o [2:0] $end
$var wire 32 9 MEMWB_PC_Add4_o [31:0] $end
$var wire 5 : MEMWB_Instr_11_7_o [4:0] $end
$var wire 32 ; MEMWB_DM_o [31:0] $end
$var wire 32 < MEMWB_ALUresult_o [31:0] $end
$var wire 1 = Jump $end
$var wire 32 > Imm_Gen_o [31:0] $end
$var wire 32 ? IM_Instr_o [31:0] $end
$var wire 1 @ IFID_Write $end
$var wire 32 A IFID_PC_o [31:0] $end
$var wire 32 B IFID_PC_Add4_o [31:0] $end
$var wire 32 C IFID_Instr_o [31:0] $end
$var wire 3 D IDEXE_WB_o [2:0] $end
$var wire 32 E IDEXE_RTdata_o [31:0] $end
$var wire 32 F IDEXE_RSdata_o [31:0] $end
$var wire 32 G IDEXE_PC_add4_o [31:0] $end
$var wire 2 H IDEXE_Mem_o [1:0] $end
$var wire 32 I IDEXE_Instr_o [31:0] $end
$var wire 4 J IDEXE_Instr_30_14_12_o [3:0] $end
$var wire 5 K IDEXE_Instr_11_7_o [4:0] $end
$var wire 32 L IDEXE_ImmGen_o [31:0] $end
$var wire 3 M IDEXE_Exe_o [2:0] $end
$var wire 2 N ForwardB [1:0] $end
$var wire 2 O ForwardA [1:0] $end
$var wire 32 P EXE_ALUSrc_o [31:0] $end
$var wire 1 Q EXEMEM_Zero_o $end
$var wire 3 R EXEMEM_WB_o [2:0] $end
$var wire 32 S EXEMEM_RTdata_o [31:0] $end
$var wire 32 T EXEMEM_PC_Add4_o [31:0] $end
$var wire 2 U EXEMEM_Mem_o [1:0] $end
$var wire 32 V EXEMEM_Instr_o [31:0] $end
$var wire 5 W EXEMEM_Instr_11_7_o [4:0] $end
$var wire 32 X EXEMEM_DM_o [31:0] $end
$var wire 32 Y EXEMEM_ALUResult_o [31:0] $end
$var wire 1 Z Branch $end
$var wire 4 [ ALU_Ctrl_o [3:0] $end
$var wire 32 \ ALUSrc2_o [31:0] $end
$var wire 32 ] ALUSrc1_o [31:0] $end
$var wire 1 ^ ALUSrc $end
$var wire 32 _ ALUResult [31:0] $end
$var wire 2 ` ALUOp [1:0] $end
$scope module ALU_Ctrl $end
$var wire 2 a ALUOp [1:0] $end
$var wire 6 b instr_ALUOp [5:0] $end
$var wire 4 c instr [3:0] $end
$var wire 3 d func3 [2:0] $end
$var reg 4 e ALU_Ctrl_o [3:0] $end
$upscope $end
$scope module Branch_Adder $end
$var wire 32 f sum_o [31:0] $end
$var wire 32 g src2_i [31:0] $end
$var wire 32 h src1_i [31:0] $end
$upscope $end
$scope module Data_Memory $end
$var wire 1 i MemRead_i $end
$var wire 1 j MemWrite_i $end
$var wire 1 ! clk_i $end
$var wire 32 k data_o [31:0] $end
$var wire 32 l data_i [31:0] $end
$var wire 32 m addr_i [31:0] $end
$var integer 32 n i [31:0] $end
$upscope $end
$scope module Decoder $end
$var wire 7 o opcode [6:0] $end
$var wire 32 p instr_i [31:0] $end
$var reg 2 q ALUOp [1:0] $end
$var reg 1 ^ ALUSrc $end
$var reg 1 Z Branch $end
$var reg 1 = Jump $end
$var reg 1 3 MemRead $end
$var reg 1 2 MemWrite $end
$var reg 1 ) RegWrite $end
$var reg 1 r WriteBack0 $end
$var reg 1 s WriteBack1 $end
$upscope $end
$scope module EXEtoMEM $end
$var wire 3 t Mem_i [2:0] $end
$var wire 1 ! clk_i $end
$var wire 1 " rst_i $end
$var wire 1 ' zero_i $end
$var wire 32 u rtdata_i [31:0] $end
$var wire 32 v pc_add4_i [31:0] $end
$var wire 32 w instr_i [31:0] $end
$var wire 32 x alu_ans_i [31:0] $end
$var wire 5 y WBreg_i [4:0] $end
$var wire 3 z WB_i [2:0] $end
$var reg 3 { Mem_o [2:0] $end
$var reg 3 | WB_o [2:0] $end
$var reg 5 } WBreg_o [4:0] $end
$var reg 32 ~ alu_ans_o [31:0] $end
$var reg 32 !" instr_o [31:0] $end
$var reg 32 "" pc_add4_o [31:0] $end
$var reg 32 #" rtdata_o [31:0] $end
$var reg 1 Q zero_o $end
$upscope $end
$scope module FWUnit $end
$var wire 5 $" EXEMEM_RD [4:0] $end
$var wire 3 %" EXEMEM_RegWrite [2:0] $end
$var wire 5 &" IDEXE_RS1 [4:0] $end
$var wire 5 '" IDEXE_RS2 [4:0] $end
$var wire 3 (" MEMWB_RegWrite [2:0] $end
$var wire 5 )" MEMWB_RD [4:0] $end
$var reg 2 *" ForwardA [1:0] $end
$var reg 2 +" ForwardB [1:0] $end
$upscope $end
$scope module Hazard_detection_obj $end
$var wire 1 ," IDEXE_memRead $end
$var wire 5 -" IFID_regRs [4:0] $end
$var wire 5 ." IFID_regRt [4:0] $end
$var wire 5 /" IDEXE_regRd [4:0] $end
$var reg 1 @ IFID_write $end
$var reg 1 , PC_write $end
$var reg 1 7 control_output_select $end
$upscope $end
$scope module IDtoEXE $end
$var wire 3 0" Exe_i [2:0] $end
$var wire 2 1" Mem_i [1:0] $end
$var wire 3 2" WB_i [2:0] $end
$var wire 5 3" WBreg_i [4:0] $end
$var wire 4 4" alu_ctrl_instr [3:0] $end
$var wire 1 ! clk_i $end
$var wire 1 " rst_i $end
$var wire 32 5" pc_add4_i [31:0] $end
$var wire 32 6" instr_i [31:0] $end
$var wire 32 7" immgen_i [31:0] $end
$var wire 32 8" data2_i [31:0] $end
$var wire 32 9" data1_i [31:0] $end
$var reg 3 :" Exe_o [2:0] $end
$var reg 2 ;" Mem_o [1:0] $end
$var reg 3 <" WB_o [2:0] $end
$var reg 5 =" WBreg_o [4:0] $end
$var reg 4 >" alu_ctrl_input [3:0] $end
$var reg 32 ?" data1_o [31:0] $end
$var reg 32 @" data2_o [31:0] $end
$var reg 32 A" immgen_o [31:0] $end
$var reg 32 B" instr_o [31:0] $end
$var reg 32 C" pc_add4_o [31:0] $end
$upscope $end
$scope module IFtoID $end
$var wire 1 @ IFID_write $end
$var wire 1 ! clk_i $end
$var wire 1 % flush $end
$var wire 1 " rst_i $end
$var wire 32 D" pc_add4_i [31:0] $end
$var wire 32 E" instr_i [31:0] $end
$var wire 32 F" address_i [31:0] $end
$var reg 32 G" address_o [31:0] $end
$var reg 32 H" instr_o [31:0] $end
$var reg 32 I" pc_add4_o [31:0] $end
$upscope $end
$scope module IM $end
$var wire 32 J" instr_o [31:0] $end
$var wire 32 K" addr_i [31:0] $end
$var integer 32 L" i [31:0] $end
$upscope $end
$scope module ImmGen $end
$var wire 32 M" instr_i [31:0] $end
$var wire 7 N" opcode [6:0] $end
$var wire 3 O" func3 [2:0] $end
$var reg 32 P" Imm_Gen_o [31:0] $end
$upscope $end
$scope module MEMtoWB $end
$var wire 32 Q" DM_i [31:0] $end
$var wire 3 R" WB_i [2:0] $end
$var wire 5 S" WBreg_i [4:0] $end
$var wire 32 T" alu_ans_i [31:0] $end
$var wire 1 ! clk_i $end
$var wire 32 U" pc_add4_i [31:0] $end
$var wire 1 " rst_i $end
$var reg 32 V" DM_o [31:0] $end
$var reg 3 W" WB_o [2:0] $end
$var reg 5 X" WBreg_o [4:0] $end
$var reg 32 Y" alu_ans_o [31:0] $end
$var reg 32 Z" pc_add4_o [31:0] $end
$upscope $end
$scope module MUX_ALUSrc $end
$var wire 32 [" data0_i [31:0] $end
$var wire 32 \" data1_i [31:0] $end
$var wire 1 ]" select_i $end
$var wire 32 ^" data_o [31:0] $end
$upscope $end
$scope module MUX_ALU_src1 $end
$var wire 32 _" data0_i [31:0] $end
$var wire 32 `" data2_i [31:0] $end
$var wire 2 a" select_i [1:0] $end
$var wire 32 b" data1_i [31:0] $end
$var reg 32 c" data_o [31:0] $end
$upscope $end
$scope module MUX_ALU_src2 $end
$var wire 32 d" data0_i [31:0] $end
$var wire 32 e" data2_i [31:0] $end
$var wire 2 f" select_i [1:0] $end
$var wire 32 g" data1_i [31:0] $end
$var reg 32 h" data_o [31:0] $end
$upscope $end
$scope module MUX_MemtoReg $end
$var wire 32 i" data0_i [31:0] $end
$var wire 32 j" data1_i [31:0] $end
$var wire 32 k" data2_i [31:0] $end
$var wire 2 l" select_i [1:0] $end
$var reg 32 m" data_o [31:0] $end
$upscope $end
$scope module MUX_PCSrc $end
$var wire 32 n" data1_i [31:0] $end
$var wire 1 5 select_i $end
$var wire 32 o" data_o [31:0] $end
$var wire 32 p" data0_i [31:0] $end
$upscope $end
$scope module MUX_control $end
$var wire 32 q" data0_i [31:0] $end
$var wire 32 r" data1_i [31:0] $end
$var wire 1 7 select_i $end
$var wire 32 s" data_o [31:0] $end
$upscope $end
$scope module PC $end
$var wire 1 , PCWrite $end
$var wire 1 ! clk_i $end
$var wire 32 t" pc_i [31:0] $end
$var wire 1 " rst_i $end
$var reg 32 u" pc_o [31:0] $end
$upscope $end
$scope module PC_plus_4_Adder $end
$var wire 32 v" src1_i [31:0] $end
$var wire 32 w" src2_i [31:0] $end
$var wire 32 x" sum_o [31:0] $end
$upscope $end
$scope module RF $end
$var wire 5 y" RDaddr_i [4:0] $end
$var wire 32 z" RDdata_i [31:0] $end
$var wire 5 {" RSaddr_i [4:0] $end
$var wire 32 |" RSdata_o [31:0] $end
$var wire 5 }" RTaddr_i [4:0] $end
$var wire 32 ~" RTdata_o [31:0] $end
$var wire 1 !# RegWrite_i $end
$var wire 1 ! clk_i $end
$var wire 1 " rst_i $end
$upscope $end
$scope module SL1 $end
$var wire 32 "# data_i [31:0] $end
$var wire 32 ## data_o [31:0] $end
$upscope $end
$scope module alu $end
$var wire 4 $# ALU_control [3:0] $end
$var wire 1 " rst_n $end
$var wire 32 %# src1 [31:0] $end
$var wire 32 &# src2 [31:0] $end
$var wire 1 ' Zero $end
$var reg 32 '# result [31:0] $end
$upscope $end
$upscope $end
$upscope $end
$enddefinitions $end
#0
$dumpvars
b0 '#
b0 &#
b0 %#
b10 $#
bx0 ##
bx "#
0!#
bx ~"
bx }"
bx |"
bx {"
b0 z"
b0 y"
bx x"
b100 w"
bx v"
bx u"
bx t"
b0xxxxxxxx s"
b0xxxxxxxx r"
b0 q"
bx p"
bx o"
bx n"
b0 m"
b0 l"
b0 k"
b0 j"
b0 i"
b0 h"
b0 g"
b0 f"
b0 e"
b0 d"
b0 c"
b0 b"
b0 a"
b0 `"
b0 _"
b0 ^"
0]"
b0 \"
b0 ["
b0 Z"
b0 Y"
b0 X"
b0 W"
b0 V"
b0 U"
b0 T"
b0 S"
b0 R"
b0 Q"
bx P"
bx O"
bx N"
bx M"
b100000 L"
bx K"
bx J"
bx I"
bx H"
bx G"
bx F"
bx E"
bx D"
b0 C"
b0 B"
b0 A"
b0 @"
b0 ?"
b0 >"
b0 ="
b0 <"
b0 ;"
b0 :"
bx 9"
bx 8"
bx 7"
bx 6"
bx 5"
bx 4"
bx 3"
bx 2"
bx 1"
bx 0"
b0 /"
bx ."
bx -"
0,"
b0 +"
b0 *"
b0 )"
b0 ("
b0 '"
b0 &"
b0 %"
b0 $"
b0 #"
b0 ""
b0 !"
b0 ~
b0 }
b0 |
b0 {
b0 z
b0 y
b0 x
b0 w
b0 v
b0 u
b0 t
xs
xr
bx q
bx p
bx o
b10000000 n
b0 m
b0 l
b0 k
0j
0i
bx0 h
bx g
bx f
b10 e
b0 d
b0 c
b0 b
b0 a
bx `
b0 _
x^
b0 ]
b0 \
b10 [
xZ
b0 Y
b0 X
b0 W
b0 V
b0 U
b0 T
b0 S
b0 R
0Q
b0 P
b0 O
b0 N
b0 M
b0 L
b0 K
b0 J
b0 I
b0 H
b0 G
b0 F
b0 E
b0 D
bx C
bx B
bx A
1@
bx ?
bx >
x=
b0 <
b0 ;
b0 :
b0 9
b0 8
17
b0 6
x5
bx 4
x3
x2
bx 1
bx 0
bx /
bx .
bx -
1,
bx +
bx *
x)
bx0 (
1'
b100 &
z%
b10000000000000000000000000000011 $
b0 #
0"
0!
$end
#25000
b100 2"
b0 1"
b1 0"
05
b10000001 4
b10000001 s"
b100 .
b100 o"
b100 t"
b0 `
b0 q
1^
02
03
0r
b0 1
0s
0=
0Z
b10000001 r"
1)
b0 /
b0 f
b0 n"
b0 (
b0 h
b0 ##
b10011 N"
b0 O"
b10011 o
b0 3"
b0 4"
b0 *
b0 8"
b0 ~"
b0 }"
b0 +
b0 9"
b0 |"
b0 {"
b0 ."
b0 -"
b0 >
b0 7"
b0 P"
b0 "#
b100 0
b100 D"
b100 p"
b100 x"
b11001000000000000010010011 ?
b11001000000000000010010011 E"
b11001000000000000010010011 J"
b0 -
b0 F"
b0 K"
b0 u"
b0 v"
b0 B
b0 5"
b0 I"
b0 A
b0 g
b0 G"
b10011 C
b10011 p
b10011 6"
b10011 H"
b10011 M"
b1 #
1!
#50000
0!
1"
#75000
b1100100 /
b1100100 f
b1100100 n"
b1100100 (
b1100100 h
b1100100 ##
b1 3"
b10010 }"
b10010 ."
b110010 >
b110010 7"
b110010 P"
b110010 "#
b1000 .
b1000 o"
b1000 t"
1]"
b100 B
b100 5"
b100 I"
b11001000000000000010010011 C
b11001000000000000010010011 p
b11001000000000000010010011 6"
b11001000000000000010010011 H"
b11001000000000000010010011 M"
b1000 0
b1000 D"
b1000 p"
b1000 x"
b10011 ?
b10011 E"
b10011 J"
b100 -
b100 F"
b100 K"
b100 u"
b100 v"
b1 M
b1 :"
b100 D
b100 z
b100 <"
b10011 I
b10011 w
b10011 B"
1Q
b10 #
1!
#100000
0!
#125000
0'
b110010 _
b110010 x
b110010 '#
b0 (
b0 h
b0 ##
b110010 \
b110010 u
b110010 h"
b110010 &#
b1100 .
b1100 o"
b1100 t"
b0 3"
b0 }"
b0 ."
b0 >
b0 7"
b0 P"
b0 "#
b110010 P
b110010 ^"
b110010 d"
b10010 '"
b1100 0
b1100 D"
b1100 p"
b1100 x"
b1000 -
b1000 F"
b1000 K"
b1000 u"
b1000 v"
b1000 B
b1000 5"
b1000 I"
b100 /
b100 f
b100 n"
b100 A
b100 g
b100 G"
b10011 C
b10011 p
b10011 6"
b10011 H"
b10011 M"
b100 R
b100 |
b100 %"
b100 R"
b10011 V
b10011 !"
b100 G
b100 v
b100 C"
b1 K
b1 y
b1 /"
b1 ="
b110010 L
b110010 A"
b110010 \"
b11001000000000000010010011 I
b11001000000000000010010011 w
b11001000000000000010010011 B"
b11 #
1!
#150000
0!
#175000
1'
b0 _
b0 x
b0 '#
b0 \
b0 u
b0 h"
b0 &#
b1 N
b1 +"
b1 f"
b10000 .
b10000 o"
b10000 t"
b0 P
b0 ^"
b0 d"
b0 '"
1!#
b1 O
b1 *"
b1 a"
b1100 B
b1100 5"
b1100 I"
b1000 /
b1000 f
b1000 n"
b1000 A
b1000 g
b1000 G"
b10000 0
b10000 D"
b10000 p"
b10000 x"
b1100 -
b1100 F"
b1100 K"
b1100 u"
b1100 v"
b1000 G
b1000 v
b1000 C"
b0 K
b0 y
b0 /"
b0 ="
b0 L
b0 A"
b0 \"
b10011 I
b10011 w
b10011 B"
b100 T
b100 ""
b100 U"
b1 W
b1 }
b1 $"
b1 S"
b110010 S
b110010 l
b110010 #"
b110010 Y
b110010 m
b110010 ~
b110010 T"
b110010 `"
b110010 e"
0Q
b11001000000000000010010011 V
b11001000000000000010010011 !"
b100 8
b100 ("
b100 W"
b100 #
1!
#200000
0!
#225000
b10100 .
b10100 o"
b10100 t"
b110010 6
b110010 b"
b110010 g"
b110010 m"
b110010 z"
b0 N
b0 +"
b0 f"
b0 O
b0 *"
b0 a"
b10100 0
b10100 D"
b10100 p"
b10100 x"
b10000 -
b10000 F"
b10000 K"
b10000 u"
b10000 v"
b10000 B
b10000 5"
b10000 I"
b1100 /
b1100 f
b1100 n"
b1100 A
b1100 g
b1100 G"
b100 9
b100 Z"
b100 k"
b1 :
b1 )"
b1 X"
b1 y"
b110010 <
b110010 Y"
b110010 i"
b1000 T
b1000 ""
b1000 U"
b0 W
b0 }
b0 $"
b0 S"
b0 S
b0 l
b0 #"
b0 Y
b0 m
b0 ~
b0 T"
b0 `"
b0 e"
1Q
b10011 V
b10011 !"
b1100 G
b1100 v
b1100 C"
b101 #
1!
#250000
0!
#275000
b11000 .
b11000 o"
b11000 t"
b1 N
b1 +"
b1 f"
b1 O
b1 *"
b1 a"
b0 6
b0 b"
b0 g"
b0 m"
b0 z"
b10100 B
b10100 5"
b10100 I"
b10000 /
b10000 f
b10000 n"
b10000 A
b10000 g
b10000 G"
b11000 0
b11000 D"
b11000 p"
b11000 x"
b1001000000000000100010011 ?
b1001000000000000100010011 E"
b1001000000000000100010011 J"
b10100 -
b10100 F"
b10100 K"
b10100 u"
b10100 v"
b10000 G
b10000 v
b10000 C"
b1100 T
b1100 ""
b1100 U"
b1000 9
b1000 Z"
b1000 k"
b0 :
b0 )"
b0 X"
b0 y"
b0 <
b0 Y"
b0 i"
b110 #
1!
#300000
0!
#325000
b100100 (
b100100 h
b100100 ##
b11100 .
b11100 o"
b11100 t"
b10 3"
b10010 }"
b10010 ."
b10010 >
b10010 7"
b10010 P"
b10010 "#
b11100 0
b11100 D"
b11100 p"
b11100 x"
b10011 ?
b10011 E"
b10011 J"
b11000 -
b11000 F"
b11000 K"
b11000 u"
b11000 v"
b11000 B
b11000 5"
b11000 I"
b111000 /
b111000 f
b111000 n"
b10100 A
b10100 g
b10100 G"
b1001000000000000100010011 C
b1001000000000000100010011 p
b1001000000000000100010011 6"
b1001000000000000100010011 H"
b1001000000000000100010011 M"
b1100 9
b1100 Z"
b1100 k"
b10000 T
b10000 ""
b10000 U"
b10100 G
b10100 v
b10100 C"
b111 #
1!
#350000
0!
#375000
0'
b10010 _
b10010 x
b10010 '#
b0 (
b0 h
b0 ##
b10010 \
b10010 u
b10010 h"
b10010 &#
b0 N
b0 +"
b0 f"
b0 3"
b0 }"
b0 ."
b0 >
b0 7"
b0 P"
b0 "#
b100000 .
b100000 o"
b100000 t"
b10010 P
b10010 ^"
b10010 d"
b10010 '"
b11100 B
b11100 5"
b11100 I"
b11000 /
b11000 f
b11000 n"
b11000 A
b11000 g
b11000 G"
b10011 C
b10011 p
b10011 6"
b10011 H"
b10011 M"
b100000 0
b100000 D"
b100000 p"
b100000 x"
b11100 -
b11100 F"
b11100 K"
b11100 u"
b11100 v"
b11000 G
b11000 v
b11000 C"
b10 K
b10 y
b10 /"
b10 ="
b10010 L
b10010 A"
b10010 \"
b1001000000000000100010011 I
b1001000000000000100010011 w
b1001000000000000100010011 B"
b10100 T
b10100 ""
b10100 U"
b10000 9
b10000 Z"
b10000 k"
b1000 #
1!
#400000
0!
#425000
1'
b0 _
b0 x
b0 '#
b100100 .
b100100 o"
b100100 t"
b1 N
b1 +"
b1 f"
b0 \
b0 u
b0 h"
b0 &#
b0 P
b0 ^"
b0 d"
b0 '"
b100100 0
b100100 D"
b100100 p"
b100100 x"
b100000 -
b100000 F"
b100000 K"
b100000 u"
b100000 v"
b100000 B
b100000 5"
b100000 I"
b11100 /
b11100 f
b11100 n"
b11100 A
b11100 g
b11100 G"
b10100 9
b10100 Z"
b10100 k"
b11000 T
b11000 ""
b11000 U"
b10 W
b10 }
b10 $"
b10 S"
b10010 S
b10010 l
b10010 #"
b10010 Y
b10010 m
b10010 ~
b10010 T"
b10010 `"
b10010 e"
0Q
b1001000000000000100010011 V
b1001000000000000100010011 !"
b11100 G
b11100 v
b11100 C"
b0 K
b0 y
b0 /"
b0 ="
b0 L
b0 A"
b0 \"
b10011 I
b10011 w
b10011 B"
b1001 #
1!
#450000
0!
#475000
b101000 .
b101000 o"
b101000 t"
b0 N
b0 +"
b0 f"
b0 O
b0 *"
b0 a"
b10010 6
b10010 b"
b10010 g"
b10010 m"
b10010 z"
b100100 B
b100100 5"
b100100 I"
b100000 /
b100000 f
b100000 n"
b100000 A
b100000 g
b100000 G"
b101000 0
b101000 D"
b101000 p"
b101000 x"
b100100 -
b100100 F"
b100100 K"
b100100 u"
b100100 v"
b100000 G
b100000 v
b100000 C"
b11100 T
b11100 ""
b11100 U"
b0 W
b0 }
b0 $"
b0 S"
b0 S
b0 l
b0 #"
b0 Y
b0 m
b0 ~
b0 T"
b0 `"
b0 e"
1Q
b10011 V
b10011 !"
b11000 9
b11000 Z"
b11000 k"
b10 :
b10 )"
b10 X"
b10 y"
b10010 <
b10010 Y"
b10010 i"
b1010 #
1!
#500000
0!
#525000
b101100 .
b101100 o"
b101100 t"
b1 N
b1 +"
b1 f"
b1 O
b1 *"
b1 a"
b0 6
b0 b"
b0 g"
b0 m"
b0 z"
b101100 0
b101100 D"
b101100 p"
b101100 x"
b1000000001000001000000110110011 ?
b1000000001000001000000110110011 E"
b1000000001000001000000110110011 J"
b101000 -
b101000 F"
b101000 K"
b101000 u"
b101000 v"
b101000 B
b101000 5"
b101000 I"
b100100 /
b100100 f
b100100 n"
b100100 A
b100100 g
b100100 G"
b11100 9
b11100 Z"
b11100 k"
b0 :
b0 )"
b0 X"
b0 y"
b0 <
b0 Y"
b0 i"
b100000 T
b100000 ""
b100000 U"
b100100 G
b100100 v
b100100 C"
b1011 #
1!
#550000
0!
#575000
b100 0"
b10000100 4
b10000100 s"
b10 `
b10 q
b10000100 r"
0^
b0 (
b0 h
b0 ##
b110011 N"
b110011 o
b11 3"
b1000 4"
b10010 *
b10010 8"
b10010 ~"
b10 }"
b110010 +
b110010 9"
b110010 |"
b1 {"
b10 ."
b1 -"
b0 >
b0 7"
b0 P"
b0 "#
b110000 .
b110000 o"
b110000 t"
b101100 B
b101100 5"
b101100 I"
b101000 /
b101000 f
b101000 n"
b101000 A
b101000 g
b101000 G"
b1000000001000001000000110110011 C
b1000000001000001000000110110011 p
b1000000001000001000000110110011 6"
b1000000001000001000000110110011 H"
b1000000001000001000000110110011 M"
b110000 0
b110000 D"
b110000 p"
b110000 x"
b10011 ?
b10011 E"
b10011 J"
b101100 -
b101100 F"
b101100 K"
b101100 u"
b101100 v"
b101000 G
b101000 v
b101000 C"
b100100 T
b100100 ""
b100100 U"
b100000 9
b100000 Z"
b100000 k"
b1100 #
1!
#600000
0!
#625000
0'
b1 0"
b10000001 4
b100000 _
b100000 x
b100000 '#
b10000001 s"
b10010 \
b10010 u
b10010 h"
b10010 &#
b110010 ]
b110010 c"
b110010 %#
b0 `
b0 q
b10000001 r"
1^
b10010 P
b10010 ^"
b10010 d"
b0 N
b0 +"
b0 f"
b0 O
b0 *"
b0 a"
b110100 .
b110100 o"
b110100 t"
b10011 N"
b10011 o
b0 3"
b0 4"
b0 *
b0 8"
b0 ~"
b0 }"
b0 +
b0 9"
b0 |"
b0 {"
b0 ."
b0 -"
b110 [
b110 e
b110 $#
b10 a
0]"
b10 '"
b1 &"
b110100 0
b110100 D"
b110100 p"
b110100 x"
b110000 -
b110000 F"
b110000 K"
b110000 u"
b110000 v"
b110000 B
b110000 5"
b110000 I"
b101100 /
b101100 f
b101100 n"
b101100 A
b101100 g
b101100 G"
b10011 C
b10011 p
b10011 6"
b10011 H"
b10011 M"
b100100 9
b100100 Z"
b100100 k"
b101000 T
b101000 ""
b101000 U"
b101100 G
b101100 v
b101100 C"
b11 K
b11 y
b11 /"
b11 ="
b100010 b
b1000 J
b1000 c
b1000 >"
b10010 E
b10010 @"
b10010 ["
b110010 F
b110010 ?"
b110010 _"
b100 M
b100 :"
b1000000001000001000000110110011 I
b1000000001000001000000110110011 w
b1000000001000001000000110110011 B"
b1101 #
1!
#650000
0!
#675000
1'
b0 \
b0 u
b0 h"
b0 &#
b1 N
b1 +"
b1 f"
b1 O
b1 *"
b1 a"
b0 _
b0 x
b0 '#
b111000 .
b111000 o"
b111000 t"
b10 [
b10 e
b10 $#
b0 P
b0 ^"
b0 d"
b0 a
1]"
b0 '"
b0 &"
b0 ]
b0 c"
b0 %#
b110100 B
b110100 5"
b110100 I"
b110000 /
b110000 f
b110000 n"
b110000 A
b110000 g
b110000 G"
b111000 0
b111000 D"
b111000 p"
b111000 x"
b110100 -
b110100 F"
b110100 K"
b110100 u"
b110100 v"
b110000 G
b110000 v
b110000 C"
b0 K
b0 y
b0 /"
b0 ="
b0 b
b0 J
b0 c
b0 >"
b0 E
b0 @"
b0 ["
b0 F
b0 ?"
b0 _"
b1 M
b1 :"
b10011 I
b10011 w
b10011 B"
b101100 T
b101100 ""
b101100 U"
b11 W
b11 }
b11 $"
b11 S"
b10010 S
b10010 l
b10010 #"
b100000 Y
b100000 m
b100000 ~
b100000 T"
b100000 `"
b100000 e"
0Q
b1000000001000001000000110110011 V
b1000000001000001000000110110011 !"
b101000 9
b101000 Z"
b101000 k"
b1110 #
1!
#700000
0!
#725000
b111100 .
b111100 o"
b111100 t"
b100000 6
b100000 b"
b100000 g"
b100000 m"
b100000 z"
b0 N
b0 +"
b0 f"
b0 O
b0 *"
b0 a"
b111100 0
b111100 D"
b111100 p"
b111100 x"
b111000 -
b111000 F"
b111000 K"
b111000 u"
b111000 v"
b111000 B
b111000 5"
b111000 I"
b110100 /
b110100 f
b110100 n"
b110100 A
b110100 g
b110100 G"
b101100 9
b101100 Z"
b101100 k"
b11 :
b11 )"
b11 X"
b11 y"
b100000 <
b100000 Y"
b100000 i"
b110000 T
b110000 ""
b110000 U"
b0 W
b0 }
b0 $"
b0 S"
b0 S
b0 l
b0 #"
b0 Y
b0 m
b0 ~
b0 T"
b0 `"
b0 e"
1Q
b10011 V
b10011 !"
b110100 G
b110100 v
b110100 C"
b1111 #
1!
#750000
0!
#775000
b1000000 .
b1000000 o"
b1000000 t"
b1 N
b1 +"
b1 f"
b1 O
b1 *"
b1 a"
b0 6
b0 b"
b0 g"
b0 m"
b0 z"
b111100 B
b111100 5"
b111100 I"
b111000 /
b111000 f
b111000 n"
b111000 A
b111000 g
b111000 G"
b1000000 0
b1000000 D"
b1000000 p"
b1000000 x"
b1100001000001000110011 ?
b1100001000001000110011 E"
b1100001000001000110011 J"
b111100 -
b111100 F"
b111100 K"
b111100 u"
b111100 v"
b111000 G
b111000 v
b111000 C"
b110100 T
b110100 ""
b110100 U"
b110000 9
b110000 Z"
b110000 k"
b0 :
b0 )"
b0 X"
b0 y"
b0 <
b0 Y"
b0 i"
b10000 #
1!
#800000
0!
#825000
b100 0"
b10000100 4
b10000100 s"
b10 `
b10 q
b10000100 r"
0^
b0 (
b0 h
b0 ##
b1000100 .
b1000100 o"
b1000100 t"
b110011 N"
b110011 o
b100 3"
b100000 *
b100000 8"
b100000 ~"
b11 }"
b110010 +
b110010 9"
b110010 |"
b1 {"
b11 ."
b1 -"
b0 >
b0 7"
b0 P"
b0 "#
b1000100 0
b1000100 D"
b1000100 p"
b1000100 x"
b10011 ?
b10011 E"
b10011 J"
b1000000 -
b1000000 F"
b1000000 K"
b1000000 u"
b1000000 v"
b1000000 B
b1000000 5"
b1000000 I"
b111100 /
b111100 f
b111100 n"
b111100 A
b111100 g
b111100 G"
b1100001000001000110011 C
b1100001000001000110011 p
b1100001000001000110011 6"
b1100001000001000110011 H"
b1100001000001000110011 M"
b110100 9
b110100 Z"
b110100 k"
b111000 T
b111000 ""
b111000 U"
b111100 G
b111100 v
b111100 C"
b10001 #
1!
#850000
0!
#875000
0'
b1 0"
b10000001 4
b1010010 _
b1010010 x
b1010010 '#
b10000001 s"
b100000 \
b100000 u
b100000 h"
b100000 &#
b110010 ]
b110010 c"
b110010 %#
b0 `
b0 q
b10000001 r"
1^
b100000 P
b100000 ^"
b100000 d"
b0 N
b0 +"
b0 f"
b0 O
b0 *"
b0 a"
b10011 N"
b10011 o
b0 3"
b0 *
b0 8"
b0 ~"
b0 }"
b0 +
b0 9"
b0 |"
b0 {"
b0 ."
b0 -"
b1001000 .
b1001000 o"
b1001000 t"
b10 b
b10 a
0]"
b11 '"
b1 &"
b1000100 B
b1000100 5"
b1000100 I"
b1000000 /
b1000000 f
b1000000 n"
b1000000 A
b1000000 g
b1000000 G"
b10011 C
b10011 p
b10011 6"
b10011 H"
b10011 M"
b1001000 0
b1001000 D"
b1001000 p"
b1001000 x"
b1000100 -
b1000100 F"
b1000100 K"
b1000100 u"
b1000100 v"
b1000000 G
b1000000 v
b1000000 C"
b100 K
b100 y
b100 /"
b100 ="
b100000 E
b100000 @"
b100000 ["
b110010 F
b110010 ?"
b110010 _"
b100 M
b100 :"
b1100001000001000110011 I
b1100001000001000110011 w
b1100001000001000110011 B"
b111100 T
b111100 ""
b111100 U"
b111000 9
b111000 Z"
b111000 k"
b10010 #
1!
#900000
0!
