Lab5/Lab5Code/lab5.vcd
$date
	Sun May 22 17:06:20 2022
$end
$version
	Icarus Verilog
$end
$timescale
	1ps
$end
$scope module testbench $end
$var reg 1 ! clk $end
$var reg 1 " rst_n $end
$var integer 32 # count [31:0] $end
$var integer 32 $ fp_w [31:0] $end
$scope module CPU $end
$var wire 1 % IFID_Flush $end
$var wire 32 & Imm_4 [31:0] $end
$var wire 1 ! clk_i $end
$var wire 1 " rst_i $end
$var wire 1 ' Zero $end
$var wire 32 ( SL1_o [31:0] $end
$var wire 1 ) RegWrite $end
$var wire 32 * RTdata_o [31:0] $end
$var wire 32 + RSdata_o [31:0] $end
$var wire 1 , PC_write $end
$var wire 32 - PC_o [31:0] $end
$var wire 32 . PC_i [31:0] $end
$var wire 32 / PC_Add_Immediate [31:0] $end
$var wire 32 0 PC_Add4 [31:0] $end
$var wire 2 1 MemtoReg [1:0] $end
$var wire 1 2 MemWrite $end
$var wire 1 3 MemRead $end
$var wire 8 4 MUX_control_o [7:0] $end
$var wire 1 5 MUXPCSrc $end
$var wire 32 6 MUXMemtoReg_o [31:0] $end
$var wire 1 7 MUXControl $end
$var wire 3 8 MEMWB_WB_o [2:0] $end
$var wire 32 9 MEMWB_PC_Add4_o [31:0] $end
$var wire 5 : MEMWB_Instr_11_7_o [4:0] $end
$var wire 32 ; MEMWB_DM_o [31:0] $end
$var wire 32 < MEMWB_ALUresult_o [31:0] $end
$var wire 1 = Jump $end
$var wire 32 > Imm_Gen_o [31:0] $end
$var wire 32 ? IM_Instr_o [31:0] $end
$var wire 1 @ IFID_Write $end
$var wire 32 A IFID_PC_o [31:0] $end
$var wire 32 B IFID_PC_Add4_o [31:0] $end
$var wire 32 C IFID_Instr_o [31:0] $end
$var wire 3 D IDEXE_WB_o [2:0] $end
$var wire 32 E IDEXE_RTdata_o [31:0] $end
$var wire 32 F IDEXE_RSdata_o [31:0] $end
$var wire 32 G IDEXE_PC_add4_o [31:0] $end
$var wire 2 H IDEXE_Mem_o [1:0] $end
$var wire 32 I IDEXE_Instr_o [31:0] $end
$var wire 4 J IDEXE_Instr_30_14_12_o [3:0] $end
$var wire 5 K IDEXE_Instr_11_7_o [4:0] $end
$var wire 32 L IDEXE_ImmGen_o [31:0] $end
$var wire 3 M IDEXE_Exe_o [2:0] $end
$var wire 2 N ForwardB [1:0] $end
$var wire 2 O ForwardA [1:0] $end
$var wire 32 P EXE_ALUSrc_o [31:0] $end
$var wire 1 Q EXEMEM_Zero_o $end
$var wire 3 R EXEMEM_WB_o [2:0] $end
$var wire 32 S EXEMEM_RTdata_o [31:0] $end
$var wire 32 T EXEMEM_PC_Add4_o [31:0] $end
$var wire 2 U EXEMEM_Mem_o [1:0] $end
$var wire 32 V EXEMEM_Instr_o [31:0] $end
$var wire 5 W EXEMEM_Instr_11_7_o [4:0] $end
$var wire 32 X EXEMEM_DM_o [31:0] $end
$var wire 32 Y EXEMEM_ALUResult_o [31:0] $end
$var wire 1 Z Branch $end
$var wire 4 [ ALU_Ctrl_o [3:0] $end
$var wire 32 \ ALUSrc2_o [31:0] $end
$var wire 32 ] ALUSrc1_o [31:0] $end
$var wire 1 ^ ALUSrc $end
$var wire 32 _ ALUResult [31:0] $end
$var wire 2 ` ALUOp [1:0] $end
$scope module ALU_Ctrl $end
$var wire 2 a ALUOp [1:0] $end
$var wire 6 b instr_ALUOp [5:0] $end
$var wire 4 c instr [3:0] $end
$var wire 3 d func3 [2:0] $end
$var reg 4 e ALU_Ctrl_o [3:0] $end
$upscope $end
$scope module Branch_Adder $end
$var wire 32 f sum_o [31:0] $end
$var wire 32 g src2_i [31:0] $end
$var wire 32 h src1_i [31:0] $end
$upscope $end
$scope module Data_Memory $end
$var wire 1 i MemRead_i $end
$var wire 1 j MemWrite_i $end
$var wire 1 ! clk_i $end
$var wire 32 k data_o [31:0] $end
$var wire 32 l data_i [31:0] $end
$var wire 32 m addr_i [31:0] $end
$var integer 32 n i [31:0] $end
$upscope $end
$scope module Decoder $end
$var wire 7 o opcode [6:0] $end
$var wire 32 p instr_i [31:0] $end
$var wire 3 q funct3 [2:0] $end
$var reg 2 r ALUOp [1:0] $end
$var reg 1 ^ ALUSrc $end
$var reg 1 Z Branch $end
$var reg 1 = Jump $end
$var reg 1 3 MemRead $end
$var reg 1 2 MemWrite $end
$var reg 1 ) RegWrite $end
$var reg 1 s WriteBack0 $end
$var reg 1 t WriteBack1 $end
$upscope $end
$scope module EXEtoMEM $end
$var wire 3 u Mem_i [2:0] $end
$var wire 1 ! clk_i $end
$var wire 1 " rst_i $end
$var wire 1 ' zero_i $end
$var wire 32 v rtdata_i [31:0] $end
$var wire 32 w pc_add4_i [31:0] $end
$var wire 32 x instr_i [31:0] $end
$var wire 32 y alu_ans_i [31:0] $end
$var wire 5 z WBreg_i [4:0] $end
$var wire 3 { WB_i [2:0] $end
$var reg 3 | Mem_o [2:0] $end
$var reg 3 } WB_o [2:0] $end
$var reg 5 ~ WBreg_o [4:0] $end
$var reg 32 !" alu_ans_o [31:0] $end
$var reg 32 "" instr_o [31:0] $end
$var reg 32 #" pc_add4_o [31:0] $end
$var reg 32 $" rtdata_o [31:0] $end
$var reg 1 Q zero_o $end
$upscope $end
$scope module FWUnit $end
$var wire 5 %" EXEMEM_RD [4:0] $end
$var wire 1 &" EXEMEM_RegWrite $end
$var wire 5 '" IDEXE_RS1 [4:0] $end
$var wire 5 (" IDEXE_RS2 [4:0] $end
$var wire 1 )" MEMWB_RegWrite $end
$var wire 5 *" MEMWB_RD [4:0] $end
$var reg 2 +" ForwardA [1:0] $end
$var reg 2 ," ForwardB [1:0] $end
$upscope $end
$scope module Hazard_detection_obj $end
$var wire 1 -" IDEXE_memRead $end
$var wire 5 ." IFID_regRs [4:0] $end
$var wire 5 /" IFID_regRt [4:0] $end
$var wire 5 0" IDEXE_regRd [4:0] $end
$var reg 1 @ IFID_write $end
$var reg 1 , PC_write $end
$var reg 1 7 control_output_select $end
$upscope $end
$scope module IDtoEXE $end
$var wire 3 1" Exe_i [2:0] $end
$var wire 2 2" Mem_i [1:0] $end
$var wire 3 3" WB_i [2:0] $end
$var wire 5 4" WBreg_i [4:0] $end
$var wire 4 5" alu_ctrl_instr [3:0] $end
$var wire 1 ! clk_i $end
$var wire 1 " rst_i $end
$var wire 32 6" pc_add4_i [31:0] $end
$var wire 32 7" instr_i [31:0] $end
$var wire 32 8" immgen_i [31:0] $end
$var wire 32 9" data2_i [31:0] $end
$var wire 32 :" data1_i [31:0] $end
$var reg 3 ;" Exe_o [2:0] $end
$var reg 2 <" Mem_o [1:0] $end
$var reg 3 =" WB_o [2:0] $end
$var reg 5 >" WBreg_o [4:0] $end
$var reg 4 ?" alu_ctrl_input [3:0] $end
$var reg 32 @" data1_o [31:0] $end
$var reg 32 A" data2_o [31:0] $end
$var reg 32 B" immgen_o [31:0] $end
$var reg 32 C" instr_o [31:0] $end
$var reg 32 D" pc_add4_o [31:0] $end
$upscope $end
$scope module IFtoID $end
$var wire 1 @ IFID_write $end
$var wire 1 ! clk_i $end
$var wire 1 % flush $end
$var wire 1 " rst_i $end
$var wire 32 E" pc_add4_i [31:0] $end
$var wire 32 F" instr_i [31:0] $end
$var wire 32 G" address_i [31:0] $end
$var reg 32 H" address_o [31:0] $end
$var reg 32 I" instr_o [31:0] $end
$var reg 32 J" pc_add4_o [31:0] $end
$upscope $end
$scope module IM $end
$var wire 32 K" instr_o [31:0] $end
$var wire 32 L" addr_i [31:0] $end
$var integer 32 M" i [31:0] $end
$upscope $end
$scope module ImmGen $end
$var wire 32 N" instr_i [31:0] $end
$var wire 7 O" opcode [6:0] $end
$var wire 3 P" func3 [2:0] $end
$var reg 32 Q" Imm_Gen_o [31:0] $end
$upscope $end
$scope module MEMtoWB $end
$var wire 32 R" DM_i [31:0] $end
$var wire 3 S" WB_i [2:0] $end
$var wire 5 T" WBreg_i [4:0] $end
$var wire 32 U" alu_ans_i [31:0] $end
$var wire 1 ! clk_i $end
$var wire 32 V" pc_add4_i [31:0] $end
$var wire 1 " rst_i $end
$var reg 32 W" DM_o [31:0] $end
$var reg 3 X" WB_o [2:0] $end
$var reg 5 Y" WBreg_o [4:0] $end
$var reg 32 Z" alu_ans_o [31:0] $end
$var reg 32 [" pc_add4_o [31:0] $end
$upscope $end
$scope module MUX_ALUSrc $end
$var wire 32 \" data0_i [31:0] $end
$var wire 32 ]" data1_i [31:0] $end
$var wire 1 ^" select_i $end
$var wire 32 _" data_o [31:0] $end
$upscope $end
$scope module MUX_ALU_src1 $end
$var wire 32 `" data0_i [31:0] $end
$var wire 32 a" data2_i [31:0] $end
$var wire 2 b" select_i [1:0] $end
$var wire 32 c" data1_i [31:0] $end
$var reg 32 d" data_o [31:0] $end
$upscope $end
$scope module MUX_ALU_src2 $end
$var wire 32 e" data0_i [31:0] $end
$var wire 32 f" data2_i [31:0] $end
$var wire 2 g" select_i [1:0] $end
$var wire 32 h" data1_i [31:0] $end
$var reg 32 i" data_o [31:0] $end
$upscope $end
$scope module MUX_MemtoReg $end
$var wire 32 j" data0_i [31:0] $end
$var wire 32 k" data1_i [31:0] $end
$var wire 32 l" data2_i [31:0] $end
$var wire 2 m" select_i [1:0] $end
$var reg 32 n" data_o [31:0] $end
$upscope $end
$scope module MUX_PCSrc $end
$var wire 32 o" data1_i [31:0] $end
$var wire 1 5 select_i $end
$var wire 32 p" data_o [31:0] $end
$var wire 32 q" data0_i [31:0] $end
$upscope $end
$scope module MUX_control $end
$var wire 32 r" data0_i [31:0] $end
$var wire 32 s" data1_i [31:0] $end
$var wire 1 7 select_i $end
$var wire 32 t" data_o [31:0] $end
$upscope $end
$scope module PC $end
$var wire 1 , PCWrite $end
$var wire 1 ! clk_i $end
$var wire 32 u" pc_i [31:0] $end
$var wire 1 " rst_i $end
$var reg 32 v" pc_o [31:0] $end
$upscope $end
$scope module PC_plus_4_Adder $end
$var wire 32 w" src1_i [31:0] $end
$var wire 32 x" src2_i [31:0] $end
$var wire 32 y" sum_o [31:0] $end
$upscope $end
$scope module RF $end
$var wire 5 z" RDaddr_i [4:0] $end
$var wire 32 {" RDdata_i [31:0] $end
$var wire 5 |" RSaddr_i [4:0] $end
$var wire 32 }" RSdata_o [31:0] $end
$var wire 5 ~" RTaddr_i [4:0] $end
$var wire 32 !# RTdata_o [31:0] $end
$var wire 1 "# RegWrite_i $end
$var wire 1 ! clk_i $end
$var wire 1 " rst_i $end
$upscope $end
$scope module SL1 $end
$var wire 32 ## data_i [31:0] $end
$var wire 32 $# data_o [31:0] $end
$upscope $end
$scope module alu $end
$var wire 4 %# ALU_control [3:0] $end
$var wire 1 " rst_n $end
$var wire 32 &# src1 [31:0] $end
$var wire 32 '# src2 [31:0] $end
$var wire 1 ' Zero $end
$var reg 32 (# result [31:0] $end
$upscope $end
$upscope $end
$upscope $end
$enddefinitions $end
#0
$dumpvars
b0 (#
b0 '#
b0 &#
b10 %#
bx0 $#
bx ##
0"#
bx !#
bx ~"
bx }"
bx |"
b0 {"
b0 z"
bx y"
b100 x"
bx w"
bx v"
bx u"
b0xxxxxxxx t"
b0xxxxxxxx s"
b0 r"
bx q"
bx p"
bx o"
b0 n"
b0 m"
b0 l"
b0 k"
b0 j"
b0 i"
b0 h"
b0 g"
b0 f"
b0 e"
b0 d"
b0 c"
b0 b"
b0 a"
b0 `"
b0 _"
0^"
b0 ]"
b0 \"
b0 ["
b0 Z"
b0 Y"
b0 X"
b0 W"
b0 V"
b0 U"
b0 T"
b0 S"
b0 R"
bx Q"
bx P"
bx O"
bx N"
b100000 M"
bx L"
bx K"
bx J"
bx I"
bx H"
bx G"
bx F"
bx E"
b0 D"
b0 C"
b0 B"
b0 A"
b0 @"
b0 ?"
b0 >"
b0 ="
b0 <"
b0 ;"
bx :"
bx 9"
bx 8"
bx 7"
bx 6"
bx 5"
bx 4"
bx 3"
bx 2"
bx 1"
b0 0"
bx /"
bx ."
0-"
b0 ,"
b0 +"
b0 *"
0)"
b0 ("
b0 '"
0&"
b0 %"
b0 $"
b0 #"
b0 ""
b0 !"
b0 ~
b0 }
b0 |
b0 {
b0 z
b0 y
b0 x
b0 w
b0 v
b0 u
xt
xs
bx r
bx q
bx p
bx o
b10000000 n
b0 m
b0 l
b0 k
0j
0i
bx h
bx g
bx f
b10 e
b0 d
b0 c
b0 b
b0 a
bx `
b0 _
x^
b0 ]
b0 \
b10 [
xZ
b0 Y
b0 X
b0 W
b0 V
b0 U
b0 T
b0 S
b0 R
0Q
b0 P
b0 O
b0 N
b0 M
b0 L
b0 K
b0 J
b0 I
b0 H
b0 G
b0 F
b0 E
b0 D
bx C
bx B
bx A
1@
bx ?
bx >
x=
b0 <
b0 ;
b0 :
b0 9
b0 8
17
b0 6
x5
bx 4
x3
x2
bx 1
bx 0
bx /
bx .
bx -
1,
bx +
bx *
x)
bx0 (
1'
b100 &
x%
b10000000000000000000000000000011 $
b0 #
0"
0!
$end
#25000
b100 3"
b0 2"
b1 1"
0%
05
b10000001 4
b10000001 t"
b0 `
b0 r
1^
02
03
0s
b0 1
0t
0=
0Z
b10000001 s"
1)
b0 (
b0 $#
b100 .
b100 p"
b100 u"
b10011 O"
b0 P"
b0 q
b10011 o
b0 4"
b0 5"
b0 *
b0 9"
b0 !#
b0 ~"
b0 +
b0 :"
b0 }"
b0 |"
b0 /"
b0 ."
b0 /
b0 f
b0 o"
b0 >
b0 h
b0 8"
b0 Q"
b0 ##
b100 0
b100 E"
b100 q"
b100 y"
b100000000000000011101111 ?
b100000000000000011101111 F"
b100000000000000011101111 K"
b0 -
b0 G"
b0 L"
b0 v"
b0 w"
b0 B
b0 6"
b0 J"
b0 A
b0 g
b0 H"
b10011 C
b10011 p
b10011 7"
b10011 I"
b10011 N"
b1 #
1!
#50000
0!
1"
#75000
b110 3"
bx 1"
b11000xxx 4
1%
15
b11000xxx t"
bx `
bx r
x^
b11000xxx s"
b10 1
1t
1=
b10000 (
b10000 $#
b1101111 O"
b1101111 o
b1 4"
b1000 ~"
b1000 /"
b1000 /
b1000 f
b1000 o"
b1000 >
b1000 h
b1000 8"
b1000 Q"
b1000 ##
b1000 .
b1000 p"
b1000 u"
1^"
b100 B
b100 6"
b100 J"
b100000000000000011101111 C
b100000000000000011101111 p
b100000000000000011101111 7"
b100000000000000011101111 I"
b100000000000000011101111 N"
b1000 0
b1000 E"
b1000 q"
b1000 y"
b10100100000001000010011 ?
b10100100000001000010011 F"
b10100100000001000010011 K"
b100 -
b100 G"
b100 L"
b100 v"
b100 w"
b1 M
b1 ;"
b100 D
b100 {
b100 ="
b10011 I
b10011 x
b10011 C"
1Q
b10 #
1!
#100000
0!
#125000
b100 3"
b1 1"
b10000001 4
0%
05
b10000001 t"
b0 `
b0 r
1^
b10000001 s"
b0 1
0t
0=
b0 (
b0 $#
b1100 .
b1100 p"
b1100 u"
b0x000 \
b0x000 i"
b0x000 '#
bx [
bx e
bx %#
b10011 O"
b10011 o
b0 4"
b0 ~"
b0 /"
b0 /
b0 f
b0 o"
b0 >
b0 h
b0 8"
b0 Q"
b0 ##
1&"
b0x000 P
b0x000 _"
b0x000 e"
b0xx b
bx a
x^"
b1000 ("
b1100 0
b1100 E"
b1100 q"
b1100 y"
b10100011000000110010011 ?
b10100011000000110010011 F"
b10100011000000110010011 K"
b1000 -
b1000 G"
b1000 L"
b1000 v"
b1000 w"
b0 B
b0 6"
b0 J"
b10011 C
b10011 p
b10011 7"
b10011 I"
b10011 N"
b100 R
b100 }
b100 S"
b10011 V
b10011 ""
b100 G
b100 w
b100 D"
b1 K
b1 z
b1 0"
b1 >"
b1000 L
b1000 B"
b1000 ]"
bx M
bx ;"
b110 D
b110 {
b110 ="
b100000000000000011101111 I
b100000000000000011101111 x
b100000000000000011101111 C"
b11 #
1!
#150000
0!
#175000
b1010 (
b1010 $#
b0 \
b0 i"
b0 '#
b10 [
b10 e
b10 %#
b11 4"
b101 ~"
b11 |"
b101 /"
b11 ."
b101 >
b101 h
b101 8"
b101 Q"
b101 ##
b10000 .
b10000 p"
b10000 u"
b0 P
b0 _"
b0 e"
b0 b
b0 a
1^"
b0 ("
1)"
1"#
b1100 B
b1100 6"
b1100 J"
b1101 /
b1101 f
b1101 o"
b1000 A
b1000 g
b1000 H"
b10100011000000110010011 C
b10100011000000110010011 p
b10100011000000110010011 7"
b10100011000000110010011 I"
b10100011000000110010011 N"
b10000 0
b10000 E"
b10000 q"
b10000 y"
b0 ?
b0 F"
b0 K"
b1100 -
b1100 G"
b1100 L"
b1100 v"
b1100 w"
b0 G
b0 w
b0 D"
b0 K
b0 z
b0 0"
b0 >"
b0 L
b0 B"
b0 ]"
b1 M
b1 ;"
b100 D
b100 {
b100 ="
b10011 I
b10011 x
b10011 C"
b100 T
b100 #"
b100 V"
b1 W
b1 ~
b1 %"
b1 T"
b110 R
b110 }
b110 S"
b100000000000000011101111 V
b100000000000000011101111 ""
b100 8
b100 X"
b100 #
1!
#200000
0!
#225000
b0xx 3"
bx 1"
0'
b0xx00xxx 4
b0xx00xxx t"
b101 _
b101 y
b101 (#
bx `
bx r
x^
xs
bx 1
xt
b0xx00xxx s"
0)
b0 (
b0 $#
b101 \
b101 i"
b101 '#
b10100 .
b10100 p"
b10100 u"
b0 O"
b0 o
b0 4"
b0 ~"
b0 |"
b0 /"
b0 ."
b0 >
b0 h
b0 8"
b0 Q"
b0 ##
b100 6
b100 c"
b100 h"
b100 n"
b100 {"
b10 m"
b101 P
b101 _"
b101 e"
b101 ("
b11 '"
b10100 0
b10100 E"
b10100 q"
b10100 y"
b10000 -
b10000 G"
b10000 L"
b10000 v"
b10000 w"
b10000 B
b10000 6"
b10000 J"
b1100 /
b1100 f
b1100 o"
b1100 A
b1100 g
b1100 H"
b0 C
b0 p
b0 7"
b0 I"
b0 N"
b100 9
b100 ["
b100 l"
b1 :
b1 *"
b1 Y"
b1 z"
b110 8
b110 X"
b0 T
b0 #"
b0 V"
b0 W
b0 ~
b0 %"
b0 T"
b100 R
b100 }
b100 S"
b10011 V
b10011 ""
b1100 G
b1100 w
b1100 D"
b11 K
b11 z
b11 0"
b11 >"
b101 L
b101 B"
b101 ]"
b10100011000000110010011 I
b10100011000000110010011 x
b10100011000000110010011 C"
b101 #
1!
#250000
0!
#275000
1'
b0 \
b0 i"
b0 '#
bx [
bx e
bx %#
b0 _
b0 y
b0 (#
b11000 .
b11000 p"
b11000 u"
b0 P
b0 _"
b0 e"
b0xx b
bx a
x^"
b0 ("
b0 '"
b0 ]
b0 d"
b0 &#
b0 6
b0 c"
b0 h"
b0 n"
b0 {"
b0 O
b0 +"
b0 b"
b0 m"
b10100 B
b10100 6"
b10100 J"
b10000 /
b10000 f
b10000 o"
b10000 A
b10000 g
b10000 H"
b11000 0
b11000 E"
b11000 q"
b11000 y"
b10100 -
b10100 G"
b10100 L"
b10100 v"
b10100 w"
b10000 G
b10000 w
b10000 D"
b0 K
b0 z
b0 0"
b0 >"
b0 L
b0 B"
b0 ]"
bx M
bx ;"
b0xx D
b0xx {
b0xx ="
b0 I
b0 x
b0 C"
b1100 T
b1100 #"
b1100 V"
b11 W
b11 ~
b11 %"
b11 T"
b101 Y
b101 m
b101 !"
b101 U"
b101 a"
b101 f"
0Q
b10100011000000110010011 V
b10100011000000110010011 ""
b0 9
b0 ["
b0 l"
b0 :
b0 *"
b0 Y"
b0 z"
b100 8
b100 X"
b110 #
1!
#300000
0!
#325000
b11100 .
b11100 p"
b11100 u"
b101 6
b101 c"
b101 h"
b101 n"
b101 {"
0&"
b11100 0
b11100 E"
b11100 q"
b11100 y"
b11000 -
b11000 G"
b11000 L"
b11000 v"
b11000 w"
b11000 B
b11000 6"
b11000 J"
b10100 /
b10100 f
b10100 o"
b10100 A
b10100 g
b10100 H"
b1100 9
b1100 ["
b1100 l"
b11 :
b11 *"
b11 Y"
b11 z"
b101 <
b101 Z"
b101 j"
b10000 T
b10000 #"
b10000 V"
b0 W
b0 ~
b0 %"
b0 T"
b0 Y
b0 m
b0 !"
b0 U"
b0 a"
b0 f"
1Q
b0xx R
b0xx }
b0xx S"
b0 V
b0 ""
b10100 G
b10100 w
b10100 D"
b111 #
1!
#350000
0!
#375000
b100000 .
b100000 p"
b100000 u"
b0 6
b0 c"
b0 h"
b0 n"
b0 {"
bx m"
0)"
0"#
b11100 B
b11100 6"
b11100 J"
b11000 /
b11000 f
b11000 o"
b11000 A
b11000 g
b11000 H"
b100000 0
b100000 E"
b100000 q"
b100000 y"
b11100 -
b11100 G"
b11100 L"
b11100 v"
b11100 w"
b11000 G
b11000 w
b11000 D"
b10100 T
b10100 #"
b10100 V"
b10000 9
b10000 ["
b10000 l"
b0 :
b0 *"
b0 Y"
b0 z"
b0 <
b0 Z"
b0 j"
b0xx 8
b0xx X"
b1000 #
1!
#400000
0!
#425000
b100100 .
b100100 p"
b100100 u"
b100100 0
b100100 E"
b100100 q"
b100100 y"
b100000 -
b100000 G"
b100000 L"
b100000 v"
b100000 w"
b100000 B
b100000 6"
b100000 J"
b11100 /
b11100 f
b11100 o"
b11100 A
b11100 g
b11100 H"
b10100 9
b10100 ["
b10100 l"
b11000 T
b11000 #"
b11000 V"
b11100 G
b11100 w
b11100 D"
b1001 #
1!
#450000
0!
#475000
b101000 .
b101000 p"
b101000 u"
b100100 B
b100100 6"
b100100 J"
b100000 /
b100000 f
b100000 o"
b100000 A
b100000 g
b100000 H"
b101000 0
b101000 E"
b101000 q"
b101000 y"
b100100 -
b100100 G"
b100100 L"
b100100 v"
b100100 w"
b100000 G
b100000 w
b100000 D"
b11100 T
b11100 #"
b11100 V"
b11000 9
b11000 ["
b11000 l"
b1010 #
1!
#500000
0!
#525000
b101100 .
b101100 p"
b101100 u"
b101100 0
b101100 E"
b101100 q"
b101100 y"
b101000 -
b101000 G"
b101000 L"
b101000 v"
b101000 w"
b101000 B
b101000 6"
b101000 J"
b100100 /
b100100 f
b100100 o"
b100100 A
b100100 g
b100100 H"
b11100 9
b11100 ["
b11100 l"
b100000 T
b100000 #"
b100000 V"
b100100 G
b100100 w
b100100 D"
b1011 #
1!
#550000
0!
#575000
b110000 .
b110000 p"
b110000 u"
b101100 B
b101100 6"
b101100 J"
b101000 /
b101000 f
b101000 o"
b101000 A
b101000 g
b101000 H"
b110000 0
b110000 E"
b110000 q"
b110000 y"
b101100 -
b101100 G"
b101100 L"
b101100 v"
b101100 w"
b101000 G
b101000 w
b101000 D"
b100100 T
b100100 #"
b100100 V"
b100000 9
b100000 ["
b100000 l"
b1100 #
1!
#600000
0!
#625000
b110100 .
b110100 p"
b110100 u"
b110100 0
b110100 E"
b110100 q"
b110100 y"
b110000 -
b110000 G"
b110000 L"
b110000 v"
b110000 w"
b110000 B
b110000 6"
b110000 J"
b101100 /
b101100 f
b101100 o"
b101100 A
b101100 g
b101100 H"
b100100 9
b100100 ["
b100100 l"
b101000 T
b101000 #"
b101000 V"
b101100 G
b101100 w
b101100 D"
b1101 #
1!
#650000
0!
#675000
b111000 .
b111000 p"
b111000 u"
b110100 B
b110100 6"
b110100 J"
b110000 /
b110000 f
b110000 o"
b110000 A
b110000 g
b110000 H"
b111000 0
b111000 E"
b111000 q"
b111000 y"
b110100 -
b110100 G"
b110100 L"
b110100 v"
b110100 w"
b110000 G
b110000 w
b110000 D"
b101100 T
b101100 #"
b101100 V"
b101000 9
b101000 ["
b101000 l"
b1110 #
1!
#700000
0!
#725000
b111100 .
b111100 p"
b111100 u"
b111100 0
b111100 E"
b111100 q"
b111100 y"
b111000 -
b111000 G"
b111000 L"
b111000 v"
b111000 w"
b111000 B
b111000 6"
b111000 J"
b110100 /
b110100 f
b110100 o"
b110100 A
b110100 g
b110100 H"
b101100 9
b101100 ["
b101100 l"
b110000 T
b110000 #"
b110000 V"
b110100 G
b110100 w
b110100 D"
b1111 #
1!
#750000
0!
#775000
b1000000 .
b1000000 p"
b1000000 u"
b111100 B
b111100 6"
b111100 J"
b111000 /
b111000 f
b111000 o"
b111000 A
b111000 g
b111000 H"
b1000000 0
b1000000 E"
b1000000 q"
b1000000 y"
b111100 -
b111100 G"
b111100 L"
b111100 v"
b111100 w"
b111000 G
b111000 w
b111000 D"
b110100 T
b110100 #"
b110100 V"
b110000 9
b110000 ["
b110000 l"
b10000 #
1!
#800000
0!
#825000
b1000100 .
b1000100 p"
b1000100 u"
b1000100 0
b1000100 E"
b1000100 q"
b1000100 y"
b1000000 -
b1000000 G"
b1000000 L"
b1000000 v"
b1000000 w"
b1000000 B
b1000000 6"
b1000000 J"
b111100 /
b111100 f
b111100 o"
b111100 A
b111100 g
b111100 H"
b110100 9
b110100 ["
b110100 l"
b111000 T
b111000 #"
b111000 V"
b111100 G
b111100 w
b111100 D"
b10001 #
1!
#850000
0!
#875000
b1001000 .
b1001000 p"
b1001000 u"
b1000100 B
b1000100 6"
b1000100 J"
b1000000 /
b1000000 f
b1000000 o"
b1000000 A
b1000000 g
b1000000 H"
b1001000 0
b1001000 E"
b1001000 q"
b1001000 y"
b1000100 -
b1000100 G"
b1000100 L"
b1000100 v"
b1000100 w"
b1000000 G
b1000000 w
b1000000 D"
b111100 T
b111100 #"
b111100 V"
b111000 9
b111000 ["
b111000 l"
b10010 #
1!
#900000
0!
#925000
b1001100 .
b1001100 p"
b1001100 u"
b1001100 0
b1001100 E"
b1001100 q"
b1001100 y"
b1001000 -
b1001000 G"
b1001000 L"
b1001000 v"
b1001000 w"
b1001000 B
b1001000 6"
b1001000 J"
b1000100 /
b1000100 f
b1000100 o"
b1000100 A
b1000100 g
b1000100 H"
b111100 9
b111100 ["
b111100 l"
b1000000 T
b1000000 #"
b1000000 V"
b1000100 G
b1000100 w
b1000100 D"
b10011 #
1!
#950000
0!
#975000
b1010000 .
b1010000 p"
b1010000 u"
b1001100 B
b1001100 6"
b1001100 J"
b1001000 /
b1001000 f
b1001000 o"
b1001000 A
b1001000 g
b1001000 H"
b1010000 0
b1010000 E"
b1010000 q"
b1010000 y"
b1001100 -
b1001100 G"
b1001100 L"
b1001100 v"
b1001100 w"
b1001000 G
b1001000 w
b1001000 D"
b1000100 T
b1000100 #"
b1000100 V"
b1000000 9
b1000000 ["
b1000000 l"
b10100 #
1!
#1000000
0!
#1025000
b1010100 .
b1010100 p"
b1010100 u"
b1010100 0
b1010100 E"
b1010100 q"
b1010100 y"
b1010000 -
b1010000 G"
b1010000 L"
b1010000 v"
b1010000 w"
b1010000 B
b1010000 6"
b1010000 J"
b1001100 /
b1001100 f
b1001100 o"
b1001100 A
b1001100 g
b1001100 H"
b1000100 9
b1000100 ["
b1000100 l"
b1001000 T
b1001000 #"
b1001000 V"
b1001100 G
b1001100 w
b1001100 D"
b10101 #
1!
#1050000
0!
#1075000
b1011000 .
b1011000 p"
b1011000 u"
b1010100 B
b1010100 6"
b1010100 J"
b1010000 /
b1010000 f
b1010000 o"
b1010000 A
b1010000 g
b1010000 H"
b1011000 0
b1011000 E"
b1011000 q"
b1011000 y"
b1010100 -
b1010100 G"
b1010100 L"
b1010100 v"
b1010100 w"
b1010000 G
b1010000 w
b1010000 D"
b1001100 T
b1001100 #"
b1001100 V"
b1001000 9
b1001000 ["
b1001000 l"
b10110 #
1!
#1100000
0!
#1125000
b1011100 .
b1011100 p"
b1011100 u"
b1011100 0
b1011100 E"
b1011100 q"
b1011100 y"
b1011000 -
b1011000 G"
b1011000 L"
b1011000 v"
b1011000 w"
b1011000 B
b1011000 6"
b1011000 J"
b1010100 /
b1010100 f
b1010100 o"
b1010100 A
b1010100 g
b1010100 H"
b1001100 9
b1001100 ["
b1001100 l"
b1010000 T
b1010000 #"
b1010000 V"
b1010100 G
b1010100 w
b1010100 D"
b10111 #
1!
#1150000
0!
#1175000
b1100000 .
b1100000 p"
b1100000 u"
b1011100 B
b1011100 6"
b1011100 J"
b1011000 /
b1011000 f
b1011000 o"
b1011000 A
b1011000 g
b1011000 H"
b1100000 0
b1100000 E"
b1100000 q"
b1100000 y"
b1011100 -
b1011100 G"
b1011100 L"
b1011100 v"
b1011100 w"
b1011000 G
b1011000 w
b1011000 D"
b1010100 T
b1010100 #"
b1010100 V"
b1010000 9
b1010000 ["
b1010000 l"
b11000 #
1!
#1200000
0!
#1225000
b1100100 .
b1100100 p"
b1100100 u"
b1100100 0
b1100100 E"
b1100100 q"
b1100100 y"
b1100000 -
b1100000 G"
b1100000 L"
b1100000 v"
b1100000 w"
b1100000 B
b1100000 6"
b1100000 J"
b1011100 /
b1011100 f
b1011100 o"
b1011100 A
b1011100 g
b1011100 H"
b1010100 9
b1010100 ["
b1010100 l"
b1011000 T
b1011000 #"
b1011000 V"
b1011100 G
b1011100 w
b1011100 D"
b11001 #
1!
#1250000
0!
#1275000
b1101000 .
b1101000 p"
b1101000 u"
b1100100 B
b1100100 6"
b1100100 J"
b1100000 /
b1100000 f
b1100000 o"
b1100000 A
b1100000 g
b1100000 H"
b1101000 0
b1101000 E"
b1101000 q"
b1101000 y"
b1100100 -
b1100100 G"
b1100100 L"
b1100100 v"
b1100100 w"
b1100000 G
b1100000 w
b1100000 D"
b1011100 T
b1011100 #"
b1011100 V"
b1011000 9
b1011000 ["
b1011000 l"
b11010 #
1!
#1300000
0!
#1325000
b1101100 .
b1101100 p"
b1101100 u"
b1101100 0
b1101100 E"
b1101100 q"
b1101100 y"
b1101000 -
b1101000 G"
b1101000 L"
b1101000 v"
b1101000 w"
b1101000 B
b1101000 6"
b1101000 J"
b1100100 /
b1100100 f
b1100100 o"
b1100100 A
b1100100 g
b1100100 H"
b1011100 9
b1011100 ["
b1011100 l"
b1100000 T
b1100000 #"
b1100000 V"
b1100100 G
b1100100 w
b1100100 D"
b11011 #
1!
#1350000
0!
